com.vcd
$date
	Sat Oct 14 22:18:53 2023
$end
$version
	Icarus Verilog
$end
$timescale
	1ps
$end
$scope module com_tb $end
$var wire 10 ! y_out [9:0] $end
$var wire 11 " x_out [10:0] $end
$var wire 1 # valid_out $end
$var reg 1 $ clk_in $end
$var reg 1 % rst_in $end
$var reg 1 & tabulate_in $end
$var reg 1 ' valid_in $end
$var reg 11 ( x_in [10:0] $end
$var reg 10 ) y_in [9:0] $end
$scope module uut $end
$var wire 1 $ clk_in $end
$var wire 1 % rst_in $end
$var wire 1 & tabulate_in $end
$var wire 1 ' valid_in $end
$var wire 11 * x_in [10:0] $end
$var wire 10 + y_in [9:0] $end
$var wire 1 , divide_y_done $end
$var wire 1 - divide_x_done $end
$var wire 32 . avg_y [31:0] $end
$var wire 32 / avg_x [31:0] $end
$var reg 32 0 count [31:0] $end
$var reg 32 1 sum_x [31:0] $end
$var reg 32 2 sum_y [31:0] $end
$var reg 1 # valid_out $end
$var reg 11 3 x_out [10:0] $end
$var reg 1 4 x_ready $end
$var reg 10 5 y_out [9:0] $end
$var reg 1 6 y_ready $end
$var integer 32 7 major_fsm_state [31:0] $end
$scope module divide_x $end
$var wire 1 $ clk_in $end
$var wire 1 8 data_valid_in $end
$var wire 32 9 dividend_in [31:0] $end
$var wire 32 : divisor_in [31:0] $end
$var wire 1 % rst_in $end
$var parameter 32 ; DIVIDING $end
$var parameter 32 < RESTING $end
$var parameter 32 = WIDTH $end
$var reg 1 > busy_out $end
$var reg 1 - data_valid_out $end
$var reg 32 ? dividend [31:0] $end
$var reg 32 @ divisor [31:0] $end
$var reg 1 A error_out $end
$var reg 32 B quotient [31:0] $end
$var reg 32 C quotient_out [31:0] $end
$var reg 32 D remainder_out [31:0] $end
$var reg 1 E state $end
$upscope $end
$scope module divide_y $end
$var wire 1 $ clk_in $end
$var wire 1 F data_valid_in $end
$var wire 32 G dividend_in [31:0] $end
$var wire 32 H divisor_in [31:0] $end
$var wire 1 % rst_in $end
$var parameter 32 I DIVIDING $end
$var parameter 32 J RESTING $end
$var parameter 32 K WIDTH $end
$var reg 1 L busy_out $end
$var reg 1 , data_valid_out $end
$var reg 32 M dividend [31:0] $end
$var reg 32 N divisor [31:0] $end
$var reg 1 O error_out $end
$var reg 32 P quotient [31:0] $end
$var reg 32 Q quotient_out [31:0] $end
$var reg 32 R remainder_out [31:0] $end
$var reg 1 S state $end
$upscope $end
$upscope $end
$scope begin $ivl_for_loop0 $end
$var integer 32 T i [31:0] $end
$upscope $end
$upscope $end
$enddefinitions $end
$comment Show the parameter values. $end
$dumpall
b100000 K
b0 J
b1 I
b100000 =
b0 <
b1 ;
$end
#0
$dumpvars
b0 T
xS
bx R
bx Q
bx P
xO
bx N
bx M
xL
bx H
bx G
0F
xE
bx D
bx C
bx B
xA
bx @
bx ?
x>
bx :
bx 9
08
b0 7
x6
bx 5
x4
bx 3
bx 2
bx 1
bx 0
bx /
bx .
x-
x,
b0 +
b0 *
b0 )
b0 (
0'
0&
0%
0$
x#
bx "
bx !
$end
#5000
1$
#10000
0$
1%
#15000
06
04
0#
b0 0
b0 :
b0 H
b0 !
b0 5
b0 "
b0 3
b0 2
b0 G
b0 1
b0 9
0,
0S
0O
0L
b0 R
b0 N
b0 M
b0 P
0-
0E
0A
0>
b0 D
b0 @
b0 ?
b0 B
1$
#20000
0$
0%
#25000
1$
#30000
0$
1'
b1010111100 )
b1010111100 +
#35000
b1 0
b1 :
b1 H
b1010111100 2
b1010111100 G
b1 7
1$
#40000
0$
b1010111011 )
b1010111011 +
b1 (
b1 *
b1 T
#45000
b10 0
b10 :
b10 H
b10101110111 2
b10101110111 G
b1 1
b1 9
1$
#50000
0$
b1010111010 )
b1010111010 +
b10 (
b10 *
b10 T
#55000
b11 0
b11 :
b11 H
b100000110001 2
b100000110001 G
b11 1
b11 9
1$
#60000
0$
b1010111001 )
b1010111001 +
b11 (
b11 *
b11 T
#65000
b100 0
b100 :
b100 H
b101011101010 2
b101011101010 G
b110 1
b110 9
1$
#70000
0$
b1010111000 )
b1010111000 +
b100 (
b100 *
b100 T
#75000
b101 0
b101 :
b101 H
b110110100010 2
b110110100010 G
b1010 1
b1010 9
1$
#80000
0$
b1010110111 )
b1010110111 +
b101 (
b101 *
b101 T
#85000
b110 0
b110 :
b110 H
b1000001011001 2
b1000001011001 G
b1111 1
b1111 9
1$
#90000
0$
b1010110110 )
b1010110110 +
b110 (
b110 *
b110 T
#95000
b111 0
b111 :
b111 H
b1001100001111 2
b1001100001111 G
b10101 1
b10101 9
1$
#100000
0$
b1010110101 )
b1010110101 +
b111 (
b111 *
b111 T
#105000
b1000 0
b1000 :
b1000 H
b1010111000100 2
b1010111000100 G
b11100 1
b11100 9
1$
#110000
0$
b1010110100 )
b1010110100 +
b1000 (
b1000 *
b1000 T
#115000
b1001 0
b1001 :
b1001 H
b1100001111000 2
b1100001111000 G
b100100 1
b100100 9
1$
#120000
0$
b1010110011 )
b1010110011 +
b1001 (
b1001 *
b1001 T
#125000
b1010 0
b1010 :
b1010 H
b1101100101011 2
b1101100101011 G
b101101 1
b101101 9
1$
#130000
0$
b1010110010 )
b1010110010 +
b1010 (
b1010 *
b1010 T
#135000
b1011 0
b1011 :
b1011 H
b1110111011101 2
b1110111011101 G
b110111 1
b110111 9
1$
#140000
0$
b1010110001 )
b1010110001 +
b1011 (
b1011 *
b1011 T
#145000
b1100 0
b1100 :
b1100 H
b10000010001110 2
b10000010001110 G
b1000010 1
b1000010 9
1$
#150000
0$
b1010110000 )
b1010110000 +
b1100 (
b1100 *
b1100 T
#155000
b1101 0
b1101 :
b1101 H
b10001100111110 2
b10001100111110 G
b1001110 1
b1001110 9
1$
#160000
0$
b1010101111 )
b1010101111 +
b1101 (
b1101 *
b1101 T
#165000
b1110 0
b1110 :
b1110 H
b10010111101101 2
b10010111101101 G
b1011011 1
b1011011 9
1$
#170000
0$
b1010101110 )
b1010101110 +
b1110 (
b1110 *
b1110 T
#175000
b1111 0
b1111 :
b1111 H
b10100010011011 2
b10100010011011 G
b1101001 1
b1101001 9
1$
#180000
0$
b1010101101 )
b1010101101 +
b1111 (
b1111 *
b1111 T
#185000
b10000 0
b10000 :
b10000 H
b10101101001000 2
b10101101001000 G
b1111000 1
b1111000 9
1$
#190000
0$
b1010101100 )
b1010101100 +
b10000 (
b10000 *
b10000 T
#195000
b10001 0
b10001 :
b10001 H
b10110111110100 2
b10110111110100 G
b10001000 1
b10001000 9
1$
#200000
0$
b1010101011 )
b1010101011 +
b10001 (
b10001 *
b10001 T
#205000
b10010 0
b10010 :
b10010 H
b11000010011111 2
b11000010011111 G
b10011001 1
b10011001 9
1$
#210000
0$
b1010101010 )
b1010101010 +
b10010 (
b10010 *
b10010 T
#215000
b10011 0
b10011 :
b10011 H
b11001101001001 2
b11001101001001 G
b10101011 1
b10101011 9
1$
#220000
0$
b1010101001 )
b1010101001 +
b10011 (
b10011 *
b10011 T
#225000
b10100 0
b10100 :
b10100 H
b11010111110010 2
b11010111110010 G
b10111110 1
b10111110 9
1$
#230000
0$
b1010101000 )
b1010101000 +
b10100 (
b10100 *
b10100 T
#235000
b10101 0
b10101 :
b10101 H
b11100010011010 2
b11100010011010 G
b11010010 1
b11010010 9
1$
#240000
0$
b1010100111 )
b1010100111 +
b10101 (
b10101 *
b10101 T
#245000
b10110 0
b10110 :
b10110 H
b11101101000001 2
b11101101000001 G
b11100111 1
b11100111 9
1$
#250000
0$
b1010100110 )
b1010100110 +
b10110 (
b10110 *
b10110 T
#255000
b10111 0
b10111 :
b10111 H
b11110111100111 2
b11110111100111 G
b11111101 1
b11111101 9
1$
#260000
0$
b1010100101 )
b1010100101 +
b10111 (
b10111 *
b10111 T
#265000
b11000 0
b11000 :
b11000 H
b100000010001100 2
b100000010001100 G
b100010100 1
b100010100 9
1$
#270000
0$
b1010100100 )
b1010100100 +
b11000 (
b11000 *
b11000 T
#275000
b11001 0
b11001 :
b11001 H
b100001100110000 2
b100001100110000 G
b100101100 1
b100101100 9
1$
#280000
0$
b1010100011 )
b1010100011 +
b11001 (
b11001 *
b11001 T
#285000
b11010 0
b11010 :
b11010 H
b100010111010011 2
b100010111010011 G
b101000101 1
b101000101 9
1$
#290000
0$
b1010100010 )
b1010100010 +
b11010 (
b11010 *
b11010 T
#295000
b11011 0
b11011 :
b11011 H
b100100001110101 2
b100100001110101 G
b101011111 1
b101011111 9
1$
#300000
0$
b1010100001 )
b1010100001 +
b11011 (
b11011 *
b11011 T
#305000
b11100 0
b11100 :
b11100 H
b100101100010110 2
b100101100010110 G
b101111010 1
b101111010 9
1$
#310000
0$
b1010100000 )
b1010100000 +
b11100 (
b11100 *
b11100 T
#315000
b11101 0
b11101 :
b11101 H
b100110110110110 2
b100110110110110 G
b110010110 1
b110010110 9
1$
#320000
0$
b1010011111 )
b1010011111 +
b11101 (
b11101 *
b11101 T
#325000
b11110 0
b11110 :
b11110 H
b101000001010101 2
b101000001010101 G
b110110011 1
b110110011 9
1$
#330000
0$
b1010011110 )
b1010011110 +
b11110 (
b11110 *
b11110 T
#335000
b11111 0
b11111 :
b11111 H
b101001011110011 2
b101001011110011 G
b111010001 1
b111010001 9
1$
#340000
0$
b1010011101 )
b1010011101 +
b11111 (
b11111 *
b11111 T
#345000
b100000 0
b100000 :
b100000 H
b101010110010000 2
b101010110010000 G
b111110000 1
b111110000 9
1$
#350000
0$
b1010011100 )
b1010011100 +
b100000 (
b100000 *
b100000 T
#355000
b100001 0
b100001 :
b100001 H
b101100000101100 2
b101100000101100 G
b1000010000 1
b1000010000 9
1$
#360000
0$
b1010011011 )
b1010011011 +
b100001 (
b100001 *
b100001 T
#365000
b100010 0
b100010 :
b100010 H
b101101011000111 2
b101101011000111 G
b1000110001 1
b1000110001 9
1$
#370000
0$
b1010011010 )
b1010011010 +
b100010 (
b100010 *
b100010 T
#375000
b100011 0
b100011 :
b100011 H
b101110101100001 2
b101110101100001 G
b1001010011 1
b1001010011 9
1$
#380000
0$
b1010011001 )
b1010011001 +
b100011 (
b100011 *
b100011 T
#385000
b100100 0
b100100 :
b100100 H
b101111111111010 2
b101111111111010 G
b1001110110 1
b1001110110 9
1$
#390000
0$
b1010011000 )
b1010011000 +
b100100 (
b100100 *
b100100 T
#395000
b100101 0
b100101 :
b100101 H
b110001010010010 2
b110001010010010 G
b1010011010 1
b1010011010 9
1$
#400000
0$
b1010010111 )
b1010010111 +
b100101 (
b100101 *
b100101 T
#405000
b100110 0
b100110 :
b100110 H
b110010100101001 2
b110010100101001 G
b1010111111 1
b1010111111 9
1$
#410000
0$
b1010010110 )
b1010010110 +
b100110 (
b100110 *
b100110 T
#415000
b100111 0
b100111 :
b100111 H
b110011110111111 2
b110011110111111 G
b1011100101 1
b1011100101 9
1$
#420000
0$
b1010010101 )
b1010010101 +
b100111 (
b100111 *
b100111 T
#425000
b101000 0
b101000 :
b101000 H
b110101001010100 2
b110101001010100 G
b1100001100 1
b1100001100 9
1$
#430000
0$
b1010010100 )
b1010010100 +
b101000 (
b101000 *
b101000 T
#435000
b101001 0
b101001 :
b101001 H
b110110011101000 2
b110110011101000 G
b1100110100 1
b1100110100 9
1$
#440000
0$
b1010010011 )
b1010010011 +
b101001 (
b101001 *
b101001 T
#445000
b101010 0
b101010 :
b101010 H
b110111101111011 2
b110111101111011 G
b1101011101 1
b1101011101 9
1$
#450000
0$
b1010010010 )
b1010010010 +
b101010 (
b101010 *
b101010 T
#455000
b101011 0
b101011 :
b101011 H
b111001000001101 2
b111001000001101 G
b1110000111 1
b1110000111 9
1$
#460000
0$
b1010010001 )
b1010010001 +
b101011 (
b101011 *
b101011 T
#465000
b101100 0
b101100 :
b101100 H
b111010010011110 2
b111010010011110 G
b1110110010 1
b1110110010 9
1$
#470000
0$
b1010010000 )
b1010010000 +
b101100 (
b101100 *
b101100 T
#475000
b101101 0
b101101 :
b101101 H
b111011100101110 2
b111011100101110 G
b1111011110 1
b1111011110 9
1$
#480000
0$
b1010001111 )
b1010001111 +
b101101 (
b101101 *
b101101 T
#485000
b101110 0
b101110 :
b101110 H
b111100110111101 2
b111100110111101 G
b10000001011 1
b10000001011 9
1$
#490000
0$
b1010001110 )
b1010001110 +
b101110 (
b101110 *
b101110 T
#495000
b101111 0
b101111 :
b101111 H
b111110001001011 2
b111110001001011 G
b10000111001 1
b10000111001 9
1$
#500000
0$
b1010001101 )
b1010001101 +
b101111 (
b101111 *
b101111 T
#505000
b110000 0
b110000 :
b110000 H
b111111011011000 2
b111111011011000 G
b10001101000 1
b10001101000 9
1$
#510000
0$
b1010001100 )
b1010001100 +
b110000 (
b110000 *
b110000 T
#515000
b110001 0
b110001 :
b110001 H
b1000000101100100 2
b1000000101100100 G
b10010011000 1
b10010011000 9
1$
#520000
0$
b1010001011 )
b1010001011 +
b110001 (
b110001 *
b110001 T
#525000
b110010 0
b110010 :
b110010 H
b1000001111101111 2
b1000001111101111 G
b10011001001 1
b10011001001 9
1$
#530000
0$
b1010001010 )
b1010001010 +
b110010 (
b110010 *
b110010 T
#535000
b110011 0
b110011 :
b110011 H
b1000011001111001 2
b1000011001111001 G
b10011111011 1
b10011111011 9
1$
#540000
0$
b1010001001 )
b1010001001 +
b110011 (
b110011 *
b110011 T
#545000
b110100 0
b110100 :
b110100 H
b1000100100000010 2
b1000100100000010 G
b10100101110 1
b10100101110 9
1$
#550000
0$
b1010001000 )
b1010001000 +
b110100 (
b110100 *
b110100 T
#555000
b110101 0
b110101 :
b110101 H
b1000101110001010 2
b1000101110001010 G
b10101100010 1
b10101100010 9
1$
#560000
0$
b1010000111 )
b1010000111 +
b110101 (
b110101 *
b110101 T
#565000
b110110 0
b110110 :
b110110 H
b1000111000010001 2
b1000111000010001 G
b10110010111 1
b10110010111 9
1$
#570000
0$
b1010000110 )
b1010000110 +
b110110 (
b110110 *
b110110 T
#575000
b110111 0
b110111 :
b110111 H
b1001000010010111 2
b1001000010010111 G
b10111001101 1
b10111001101 9
1$
#580000
0$
b1010000101 )
b1010000101 +
b110111 (
b110111 *
b110111 T
#585000
b111000 0
b111000 :
b111000 H
b1001001100011100 2
b1001001100011100 G
b11000000100 1
b11000000100 9
1$
#590000
0$
b1010000100 )
b1010000100 +
b111000 (
b111000 *
b111000 T
#595000
b111001 0
b111001 :
b111001 H
b1001010110100000 2
b1001010110100000 G
b11000111100 1
b11000111100 9
1$
#600000
0$
b1010000011 )
b1010000011 +
b111001 (
b111001 *
b111001 T
#605000
b111010 0
b111010 :
b111010 H
b1001100000100011 2
b1001100000100011 G
b11001110101 1
b11001110101 9
1$
#610000
0$
b1010000010 )
b1010000010 +
b111010 (
b111010 *
b111010 T
#615000
b111011 0
b111011 :
b111011 H
b1001101010100101 2
b1001101010100101 G
b11010101111 1
b11010101111 9
1$
#620000
0$
b1010000001 )
b1010000001 +
b111011 (
b111011 *
b111011 T
#625000
b111100 0
b111100 :
b111100 H
b1001110100100110 2
b1001110100100110 G
b11011101010 1
b11011101010 9
1$
#630000
0$
b1010000000 )
b1010000000 +
b111100 (
b111100 *
b111100 T
#635000
b111101 0
b111101 :
b111101 H
b1001111110100110 2
b1001111110100110 G
b11100100110 1
b11100100110 9
1$
#640000
0$
b1001111111 )
b1001111111 +
b111101 (
b111101 *
b111101 T
#645000
b111110 0
b111110 :
b111110 H
b1010001000100101 2
b1010001000100101 G
b11101100011 1
b11101100011 9
1$
#650000
0$
b1001111110 )
b1001111110 +
b111110 (
b111110 *
b111110 T
#655000
b111111 0
b111111 :
b111111 H
b1010010010100011 2
b1010010010100011 G
b11110100001 1
b11110100001 9
1$
#660000
0$
b1001111101 )
b1001111101 +
b111111 (
b111111 *
b111111 T
#665000
b1000000 0
b1000000 :
b1000000 H
b1010011100100000 2
b1010011100100000 G
b11111100000 1
b11111100000 9
1$
#670000
0$
b1001111100 )
b1001111100 +
b1000000 (
b1000000 *
b1000000 T
#675000
b1000001 0
b1000001 :
b1000001 H
b1010100110011100 2
b1010100110011100 G
b100000100000 1
b100000100000 9
1$
#680000
0$
b1001111011 )
b1001111011 +
b1000001 (
b1000001 *
b1000001 T
#685000
b1000010 0
b1000010 :
b1000010 H
b1010110000010111 2
b1010110000010111 G
b100001100001 1
b100001100001 9
1$
#690000
0$
b1001111010 )
b1001111010 +
b1000010 (
b1000010 *
b1000010 T
#695000
b1000011 0
b1000011 :
b1000011 H
b1010111010010001 2
b1010111010010001 G
b100010100011 1
b100010100011 9
1$
#700000
0$
b1001111001 )
b1001111001 +
b1000011 (
b1000011 *
b1000011 T
#705000
b1000100 0
b1000100 :
b1000100 H
b1011000100001010 2
b1011000100001010 G
b100011100110 1
b100011100110 9
1$
#710000
0$
b1001111000 )
b1001111000 +
b1000100 (
b1000100 *
b1000100 T
#715000
b1000101 0
b1000101 :
b1000101 H
b1011001110000010 2
b1011001110000010 G
b100100101010 1
b100100101010 9
1$
#720000
0$
b1001110111 )
b1001110111 +
b1000101 (
b1000101 *
b1000101 T
#725000
b1000110 0
b1000110 :
b1000110 H
b1011010111111001 2
b1011010111111001 G
b100101101111 1
b100101101111 9
1$
#730000
0$
b1001110110 )
b1001110110 +
b1000110 (
b1000110 *
b1000110 T
#735000
b1000111 0
b1000111 :
b1000111 H
b1011100001101111 2
b1011100001101111 G
b100110110101 1
b100110110101 9
1$
#740000
0$
b1001110101 )
b1001110101 +
b1000111 (
b1000111 *
b1000111 T
#745000
b1001000 0
b1001000 :
b1001000 H
b1011101011100100 2
b1011101011100100 G
b100111111100 1
b100111111100 9
1$
#750000
0$
b1001110100 )
b1001110100 +
b1001000 (
b1001000 *
b1001000 T
#755000
b1001001 0
b1001001 :
b1001001 H
b1011110101011000 2
b1011110101011000 G
b101001000100 1
b101001000100 9
1$
#760000
0$
b1001110011 )
b1001110011 +
b1001001 (
b1001001 *
b1001001 T
#765000
b1001010 0
b1001010 :
b1001010 H
b1011111111001011 2
b1011111111001011 G
b101010001101 1
b101010001101 9
1$
#770000
0$
b1001110010 )
b1001110010 +
b1001010 (
b1001010 *
b1001010 T
#775000
b1001011 0
b1001011 :
b1001011 H
b1100001000111101 2
b1100001000111101 G
b101011010111 1
b101011010111 9
1$
#780000
0$
b1001110001 )
b1001110001 +
b1001011 (
b1001011 *
b1001011 T
#785000
b1001100 0
b1001100 :
b1001100 H
b1100010010101110 2
b1100010010101110 G
b101100100010 1
b101100100010 9
1$
#790000
0$
b1001110000 )
b1001110000 +
b1001100 (
b1001100 *
b1001100 T
#795000
b1001101 0
b1001101 :
b1001101 H
b1100011100011110 2
b1100011100011110 G
b101101101110 1
b101101101110 9
1$
#800000
0$
b1001101111 )
b1001101111 +
b1001101 (
b1001101 *
b1001101 T
#805000
b1001110 0
b1001110 :
b1001110 H
b1100100110001101 2
b1100100110001101 G
b101110111011 1
b101110111011 9
1$
#810000
0$
b1001101110 )
b1001101110 +
b1001110 (
b1001110 *
b1001110 T
#815000
b1001111 0
b1001111 :
b1001111 H
b1100101111111011 2
b1100101111111011 G
b110000001001 1
b110000001001 9
1$
#820000
0$
b1001101101 )
b1001101101 +
b1001111 (
b1001111 *
b1001111 T
#825000
b1010000 0
b1010000 :
b1010000 H
b1100111001101000 2
b1100111001101000 G
b110001011000 1
b110001011000 9
1$
#830000
0$
b1001101100 )
b1001101100 +
b1010000 (
b1010000 *
b1010000 T
#835000
b1010001 0
b1010001 :
b1010001 H
b1101000011010100 2
b1101000011010100 G
b110010101000 1
b110010101000 9
1$
#840000
0$
b1001101011 )
b1001101011 +
b1010001 (
b1010001 *
b1010001 T
#845000
b1010010 0
b1010010 :
b1010010 H
b1101001100111111 2
b1101001100111111 G
b110011111001 1
b110011111001 9
1$
#850000
0$
b1001101010 )
b1001101010 +
b1010010 (
b1010010 *
b1010010 T
#855000
b1010011 0
b1010011 :
b1010011 H
b1101010110101001 2
b1101010110101001 G
b110101001011 1
b110101001011 9
1$
#860000
0$
b1001101001 )
b1001101001 +
b1010011 (
b1010011 *
b1010011 T
#865000
b1010100 0
b1010100 :
b1010100 H
b1101100000010010 2
b1101100000010010 G
b110110011110 1
b110110011110 9
1$
#870000
0$
b1001101000 )
b1001101000 +
b1010100 (
b1010100 *
b1010100 T
#875000
b1010101 0
b1010101 :
b1010101 H
b1101101001111010 2
b1101101001111010 G
b110111110010 1
b110111110010 9
1$
#880000
0$
b1001100111 )
b1001100111 +
b1010101 (
b1010101 *
b1010101 T
#885000
b1010110 0
b1010110 :
b1010110 H
b1101110011100001 2
b1101110011100001 G
b111001000111 1
b111001000111 9
1$
#890000
0$
b1001100110 )
b1001100110 +
b1010110 (
b1010110 *
b1010110 T
#895000
b1010111 0
b1010111 :
b1010111 H
b1101111101000111 2
b1101111101000111 G
b111010011101 1
b111010011101 9
1$
#900000
0$
b1001100101 )
b1001100101 +
b1010111 (
b1010111 *
b1010111 T
#905000
b1011000 0
b1011000 :
b1011000 H
b1110000110101100 2
b1110000110101100 G
b111011110100 1
b111011110100 9
1$
#910000
0$
b1001100100 )
b1001100100 +
b1011000 (
b1011000 *
b1011000 T
#915000
b1011001 0
b1011001 :
b1011001 H
b1110010000010000 2
b1110010000010000 G
b111101001100 1
b111101001100 9
1$
#920000
0$
b1001100011 )
b1001100011 +
b1011001 (
b1011001 *
b1011001 T
#925000
b1011010 0
b1011010 :
b1011010 H
b1110011001110011 2
b1110011001110011 G
b111110100101 1
b111110100101 9
1$
#930000
0$
b1001100010 )
b1001100010 +
b1011010 (
b1011010 *
b1011010 T
#935000
b1011011 0
b1011011 :
b1011011 H
b1110100011010101 2
b1110100011010101 G
b111111111111 1
b111111111111 9
1$
#940000
0$
b1001100001 )
b1001100001 +
b1011011 (
b1011011 *
b1011011 T
#945000
b1011100 0
b1011100 :
b1011100 H
b1110101100110110 2
b1110101100110110 G
b1000001011010 1
b1000001011010 9
1$
#950000
0$
b1001100000 )
b1001100000 +
b1011100 (
b1011100 *
b1011100 T
#955000
b1011101 0
b1011101 :
b1011101 H
b1110110110010110 2
b1110110110010110 G
b1000010110110 1
b1000010110110 9
1$
#960000
0$
b1001011111 )
b1001011111 +
b1011101 (
b1011101 *
b1011101 T
#965000
b1011110 0
b1011110 :
b1011110 H
b1110111111110101 2
b1110111111110101 G
b1000100010011 1
b1000100010011 9
1$
#970000
0$
b1001011110 )
b1001011110 +
b1011110 (
b1011110 *
b1011110 T
#975000
b1011111 0
b1011111 :
b1011111 H
b1111001001010011 2
b1111001001010011 G
b1000101110001 1
b1000101110001 9
1$
#980000
0$
b1001011101 )
b1001011101 +
b1011111 (
b1011111 *
b1011111 T
#985000
b1100000 0
b1100000 :
b1100000 H
b1111010010110000 2
b1111010010110000 G
b1000111010000 1
b1000111010000 9
1$
#990000
0$
b1001011100 )
b1001011100 +
b1100000 (
b1100000 *
b1100000 T
#995000
b1100001 0
b1100001 :
b1100001 H
b1111011100001100 2
b1111011100001100 G
b1001000110000 1
b1001000110000 9
1$
#1000000
0$
b1001011011 )
b1001011011 +
b1100001 (
b1100001 *
b1100001 T
#1005000
b1100010 0
b1100010 :
b1100010 H
b1111100101100111 2
b1111100101100111 G
b1001010010001 1
b1001010010001 9
1$
#1010000
0$
b1001011010 )
b1001011010 +
b1100010 (
b1100010 *
b1100010 T
#1015000
b1100011 0
b1100011 :
b1100011 H
b1111101111000001 2
b1111101111000001 G
b1001011110011 1
b1001011110011 9
1$
#1020000
0$
b1001011001 )
b1001011001 +
b1100011 (
b1100011 *
b1100011 T
#1025000
b1100100 0
b1100100 :
b1100100 H
b1111111000011010 2
b1111111000011010 G
b1001101010110 1
b1001101010110 9
1$
#1030000
0$
b1001011000 )
b1001011000 +
b1100100 (
b1100100 *
b1100100 T
#1035000
b1100101 0
b1100101 :
b1100101 H
b10000000001110010 2
b10000000001110010 G
b1001110111010 1
b1001110111010 9
1$
#1040000
0$
b1001010111 )
b1001010111 +
b1100101 (
b1100101 *
b1100101 T
#1045000
b1100110 0
b1100110 :
b1100110 H
b10000001011001001 2
b10000001011001001 G
b1010000011111 1
b1010000011111 9
1$
#1050000
0$
b1001010110 )
b1001010110 +
b1100110 (
b1100110 *
b1100110 T
#1055000
b1100111 0
b1100111 :
b1100111 H
b10000010100011111 2
b10000010100011111 G
b1010010000101 1
b1010010000101 9
1$
#1060000
0$
b1001010101 )
b1001010101 +
b1100111 (
b1100111 *
b1100111 T
#1065000
b1101000 0
b1101000 :
b1101000 H
b10000011101110100 2
b10000011101110100 G
b1010011101100 1
b1010011101100 9
1$
#1070000
0$
b1001010100 )
b1001010100 +
b1101000 (
b1101000 *
b1101000 T
#1075000
b1101001 0
b1101001 :
b1101001 H
b10000100111001000 2
b10000100111001000 G
b1010101010100 1
b1010101010100 9
1$
#1080000
0$
b1001010011 )
b1001010011 +
b1101001 (
b1101001 *
b1101001 T
#1085000
b1101010 0
b1101010 :
b1101010 H
b10000110000011011 2
b10000110000011011 G
b1010110111101 1
b1010110111101 9
1$
#1090000
0$
b1001010010 )
b1001010010 +
b1101010 (
b1101010 *
b1101010 T
#1095000
b1101011 0
b1101011 :
b1101011 H
b10000111001101101 2
b10000111001101101 G
b1011000100111 1
b1011000100111 9
1$
#1100000
0$
b1001010001 )
b1001010001 +
b1101011 (
b1101011 *
b1101011 T
#1105000
b1101100 0
b1101100 :
b1101100 H
b10001000010111110 2
b10001000010111110 G
b1011010010010 1
b1011010010010 9
1$
#1110000
0$
b1001010000 )
b1001010000 +
b1101100 (
b1101100 *
b1101100 T
#1115000
b1101101 0
b1101101 :
b1101101 H
b10001001100001110 2
b10001001100001110 G
b1011011111110 1
b1011011111110 9
1$
#1120000
0$
b1001001111 )
b1001001111 +
b1101101 (
b1101101 *
b1101101 T
#1125000
b1101110 0
b1101110 :
b1101110 H
b10001010101011101 2
b10001010101011101 G
b1011101101011 1
b1011101101011 9
1$
#1130000
0$
b1001001110 )
b1001001110 +
b1101110 (
b1101110 *
b1101110 T
#1135000
b1101111 0
b1101111 :
b1101111 H
b10001011110101011 2
b10001011110101011 G
b1011111011001 1
b1011111011001 9
1$
#1140000
0$
b1001001101 )
b1001001101 +
b1101111 (
b1101111 *
b1101111 T
#1145000
b1110000 0
b1110000 :
b1110000 H
b10001100111111000 2
b10001100111111000 G
b1100001001000 1
b1100001001000 9
1$
#1150000
0$
b1001001100 )
b1001001100 +
b1110000 (
b1110000 *
b1110000 T
#1155000
b1110001 0
b1110001 :
b1110001 H
b10001110001000100 2
b10001110001000100 G
b1100010111000 1
b1100010111000 9
1$
#1160000
0$
b1001001011 )
b1001001011 +
b1110001 (
b1110001 *
b1110001 T
#1165000
b1110010 0
b1110010 :
b1110010 H
b10001111010001111 2
b10001111010001111 G
b1100100101001 1
b1100100101001 9
1$
#1170000
0$
b1001001010 )
b1001001010 +
b1110010 (
b1110010 *
b1110010 T
#1175000
b1110011 0
b1110011 :
b1110011 H
b10010000011011001 2
b10010000011011001 G
b1100110011011 1
b1100110011011 9
1$
#1180000
0$
b1001001001 )
b1001001001 +
b1110011 (
b1110011 *
b1110011 T
#1185000
b1110100 0
b1110100 :
b1110100 H
b10010001100100010 2
b10010001100100010 G
b1101000001110 1
b1101000001110 9
1$
#1190000
0$
b1001001000 )
b1001001000 +
b1110100 (
b1110100 *
b1110100 T
#1195000
b1110101 0
b1110101 :
b1110101 H
b10010010101101010 2
b10010010101101010 G
b1101010000010 1
b1101010000010 9
1$
#1200000
0$
b1001000111 )
b1001000111 +
b1110101 (
b1110101 *
b1110101 T
#1205000
b1110110 0
b1110110 :
b1110110 H
b10010011110110001 2
b10010011110110001 G
b1101011110111 1
b1101011110111 9
1$
#1210000
0$
b1001000110 )
b1001000110 +
b1110110 (
b1110110 *
b1110110 T
#1215000
b1110111 0
b1110111 :
b1110111 H
b10010100111110111 2
b10010100111110111 G
b1101101101101 1
b1101101101101 9
1$
#1220000
0$
b1001000101 )
b1001000101 +
b1110111 (
b1110111 *
b1110111 T
#1225000
b1111000 0
b1111000 :
b1111000 H
b10010110000111100 2
b10010110000111100 G
b1101111100100 1
b1101111100100 9
1$
#1230000
0$
b1001000100 )
b1001000100 +
b1111000 (
b1111000 *
b1111000 T
#1235000
b1111001 0
b1111001 :
b1111001 H
b10010111010000000 2
b10010111010000000 G
b1110001011100 1
b1110001011100 9
1$
#1240000
0$
b1001000011 )
b1001000011 +
b1111001 (
b1111001 *
b1111001 T
#1245000
b1111010 0
b1111010 :
b1111010 H
b10011000011000011 2
b10011000011000011 G
b1110011010101 1
b1110011010101 9
1$
#1250000
0$
b1001000010 )
b1001000010 +
b1111010 (
b1111010 *
b1111010 T
#1255000
b1111011 0
b1111011 :
b1111011 H
b10011001100000101 2
b10011001100000101 G
b1110101001111 1
b1110101001111 9
1$
#1260000
0$
b1001000001 )
b1001000001 +
b1111011 (
b1111011 *
b1111011 T
#1265000
b1111100 0
b1111100 :
b1111100 H
b10011010101000110 2
b10011010101000110 G
b1110111001010 1
b1110111001010 9
1$
#1270000
0$
b1001000000 )
b1001000000 +
b1111100 (
b1111100 *
b1111100 T
#1275000
b1111101 0
b1111101 :
b1111101 H
b10011011110000110 2
b10011011110000110 G
b1111001000110 1
b1111001000110 9
1$
#1280000
0$
b1000111111 )
b1000111111 +
b1111101 (
b1111101 *
b1111101 T
#1285000
b1111110 0
b1111110 :
b1111110 H
b10011100111000101 2
b10011100111000101 G
b1111011000011 1
b1111011000011 9
1$
#1290000
0$
b1000111110 )
b1000111110 +
b1111110 (
b1111110 *
b1111110 T
#1295000
b1111111 0
b1111111 :
b1111111 H
b10011110000000011 2
b10011110000000011 G
b1111101000001 1
b1111101000001 9
1$
#1300000
0$
b1000111101 )
b1000111101 +
b1111111 (
b1111111 *
b1111111 T
